{
    "__meta__": {
        "about": "HTTPie configuration file",
        "help": "https://github.com/jkbrzt/httpie#config",
        "httpie": "0.9.4"
    },
    "default_options": ["--style=monokai"]
}
